{
	"length": 32,
	"land": {
		"Grass: Plain": {
			"grass01": [0, 0],
			"grass02": [0, 1]
		},
		"Grass: Divider": {
			"grass03": [0, 2],
			"grass04": [0, 3],
			"grass05": [0, 4],
			"grass06": [0, 5]
		},
		"Grass: Outter Corner": {
			"grass09": [0, 8],
			"grass07": [0, 6],
			"grass10": [0, 9],
			"grass08": [0, 7]
		},
		"Grass: Inner Corner": {
			"grass11": [0, 10],
			"grass13": [0, 12],
			"grass12": [0, 11],
			"grass14": [0, 13]
		},
		"Grass: Assets": {
			"grass15": [0, 14],
			"grass16": [0, 15],
			"grass17": [0, 16],
			"grass20": [0, 19],
			"grass18": [0, 17],
			"grass21": [0, 20],
			"grass19": [0, 18]
		}
	}
}
